…
The best performers of this game are men from China, South Korea, and Sweden and of height 175, age 23, weight 70.

Swimming

## # A tibble: 55 x 2
##    Event                                           count
##    <fct>                                           <int>
##  1 Swimming Men's 4 x 200 metres Freestyle Relay    1543
##  2 Swimming Men's 100 metres Freestyle              1295
##  3 Swimming Men's 4 x 100 metres Medley Relay       1242
##  4 Swimming Women's 4 x 100 metres Freestyle Relay  1225
##  5 Swimming Women's 4 x 100 metres Medley Relay     1060
##  6 Swimming Women's 100 metres Freestyle             947
##  7 Swimming Men's 4 x 100 metres Freestyle Relay     937
##  8 Swimming Men's 400 metres Freestyle               928
##  9 Swimming Men's 200 metres Breaststroke            868
## 10 Swimming Men's 100 metres Backstroke              850
## # ... with 45 more rows
…
Now it seems that the best players are from China, Indonesia, Denmark, and Malaysia. The typical medal scorers are of age around 25, height around 175, weight around 70.

Gymnastics

## # A tibble: 27 x 2
##    Event                                    count
##    <fct>                                    <int>
##  1 Gymnastics Men's Individual All-Around    2500
##  2 Gymnastics Men's Team All-Around          2411
##  3 Gymnastics Men's Parallel Bars            2049
##  4 Gymnastics Men's Horizontal Bar           2041
##  5 Gymnastics Men's Pommelled Horse          2031
##  6 Gymnastics Men's Rings                    2020
##  7 Gymnastics Men's Floor Exercise           1880
##  8 Gymnastics Men's Horse Vault              1868
##  9 Gymnastics Women's Individual All-Around  1539
## 10 Gymnastics Women's Balance Beam           1531
## # ... with 17 more rows
…
